<?xml version="1.0" encoding="UTF-8" standalone="no"?>
<!-- Created with Inkscape (http://www.inkscape.org/) -->

<svg
   xmlns:dc="http://purl.org/dc/elements/1.1/"
   xmlns:cc="http://creativecommons.org/ns#"
   xmlns:rdf="http://www.w3.org/1999/02/22-rdf-syntax-ns#"
   xmlns:svg="http://www.w3.org/2000/svg"
   xmlns="http://www.w3.org/2000/svg"
   xmlns:sodipodi="http://sodipodi.sourceforge.net/DTD/sodipodi-0.dtd"
   xmlns:inkscape="http://www.inkscape.org/namespaces/inkscape"
   width="1356"
   height="780"
   viewBox="0 0 1356 780"
   id="svg2"
   version="1.1"
   inkscape:version="0.91 r13725"
   sodipodi:docname="che_guevara.svg">
  <defs
     id="defs4" />
  <sodipodi:namedview
     id="base"
     pagecolor="#ffffff"
     bordercolor="#666666"
     borderopacity="1.0"
     inkscape:pageopacity="0.0"
     inkscape:pageshadow="2"
     inkscape:zoom="0.35"
     inkscape:cx="1232.8571"
     inkscape:cy="507.14286"
     inkscape:document-units="px"
     inkscape:current-layer="layer1"
     showgrid="false"
     units="px"
     inkscape:window-width="1366"
     inkscape:window-height="699"
     inkscape:window-x="0"
     inkscape:window-y="27"
     inkscape:window-maximized="1" />
  <metadata
     id="metadata7">
    <rdf:RDF>
      <cc:Work
         rdf:about="">
        <dc:format>image/svg+xml</dc:format>
        <dc:type
           rdf:resource="http://purl.org/dc/dcmitype/StillImage" />
        <dc:title></dc:title>
      </cc:Work>
    </rdf:RDF>
  </metadata>
  <g
     inkscape:label="Layer 1"
     inkscape:groupmode="layer"
     id="layer1"
     transform="translate(0,-272.36218)">
    <path
       style="fill:#000000"
       d="m 997.0091,1032.8889 c -0.4896,-17.2538 -0.5383,-17.4623 -7.4076,-31.7541 -11.6061,-24.14658 -31.8602,-56.60912 -69.50762,-111.40436 -13.0648,-19.01572 -24.52559,-36.36802 -25.46835,-38.5607 -0.94277,-2.19265 -2.13845,-7.18518 -2.65707,-11.0945 l -0.9429,-7.10787 -9.16697,0.58371 c -16.71309,1.0642 -33.26331,-4.4362 -52.35203,-17.39913 l -8.92628,-6.06174 7.14114,-8.36283 c 3.92763,-4.59956 14.99593,-18.29369 24.59624,-30.43138 23.59949,-29.83685 33.61918,-40.94968 43.86767,-48.6537 4.98689,-3.74867 7.81593,-6.74791 6.67705,-7.07875 -1.08696,-0.31573 -4.64807,-1.29576 -7.91363,-2.17786 -7.23067,-1.95319 -12.46091,-6.55083 -12.43061,-10.92725 0.0279,-3.93135 0.98043,-5.37364 6.1939,-9.37173 l 4.00941,-3.07483 -7.1424,-0.9475 c -3.92849,-0.52111 -9.37398,-2.45879 -12.10135,-4.30594 -4.57334,-3.09741 -4.96057,-3.96197 -4.98161,-11.12336 -0.0191,-6.23635 -0.59761,-8.06585 -2.94247,-9.29348 -8.10754,-4.24464 -14.32144,-9.54648 -17.98468,-15.3451 -2.23362,-3.53558 -5.08963,-6.42951 -6.34682,-6.43095 -5.36482,-0.006 -17.76597,-7.84366 -21.76944,-13.75823 -6.59554,-9.74401 -6.78103,-10.37202 -2.02491,-6.85566 4.25849,3.14845 15.08794,4.87602 17.21733,2.74664 0.48983,-0.48983 -0.40051,-3.12572 -1.97853,-5.85753 -1.57802,-2.73183 -3.63852,-8.77618 -4.57892,-13.43191 -1.68938,-8.36399 -1.78676,-8.48435 -8.16412,-10.0902 -3.5499,-0.89387 -8.96444,-3.82201 -12.03229,-6.507 l -5.5779,-4.88178 9.28563,2.3025 c 7.47034,1.85237 9.62747,1.93908 11.03426,0.44353 1.15138,-1.22403 1.22541,-2.05432 0.21676,-2.4309 -6.90656,-2.57856 -12.22598,-6.89675 -15.33165,-12.44591 -3.18345,-5.68809 -3.58886,-8.07725 -3.34543,-19.71536 0.18752,-8.96607 -0.51045,-15.70114 -2.16123,-20.85463 -2.09489,-6.53995 -2.17,-8.50698 -0.53334,-13.96964 1.93644,-6.46325 12.66714,-18.87761 16.31741,-18.87761 1.35036,0 1.20001,0.76555 -0.52457,2.67121 -3.98184,4.39989 -4.39863,10.72614 -1.05984,16.08704 1.694,2.71993 4.20482,4.78151 5.82349,4.78151 3.0508,0 18.33845,-13.1722 20.94909,-18.05019 1.23163,-2.30138 0.85648,-4.48158 -1.71616,-9.9744 -3.72823,-7.9599 -3.14564,-13.90093 1.50797,-15.37792 1.61652,-0.51307 2.93903,-2.02079 2.93903,-3.3505 0,-1.32972 -3.40265,-9.61676 -7.56143,-18.41564 -10.77489,-22.79673 -10.69536,-27.49606 0.75046,-44.34617 12.32721,-18.14765 34.81327,-43.68856 50.94802,-57.8696 35.41217,-31.12419 71.04699,-48.69204 108.10929,-53.29756 13.4751,-1.67448 22.0711,-0.55996 34.6771,4.496 15.0695,6.04402 22.7258,7.48245 44.0604,8.27809 18.3296,0.68358 23.1252,0.36665 34.0629,-2.25119 15.471,-3.70277 17.2565,-3.30756 36.442,8.06565 39.3232,23.31072 62.7788,43.96324 73.3153,64.55355 7.8864,15.41132 13.0122,31.00847 14.9935,45.62408 2.1765,16.05495 0.3069,25.41965 -7.2839,36.48444 -3.2326,4.71208 -5.8775,9.0217 -5.8775,9.57695 0,1.59901 4.83,4.1943 9.8629,5.29975 6.3266,1.38952 11.658,6.7108 13.5497,13.5241 2.4082,8.67369 1.9813,12.55009 -2.8153,25.55932 -5.4578,14.80241 -5.5987,19.63964 -0.7038,24.17602 3.1399,2.90998 3.3475,3.57732 1.351,4.34347 -1.2975,0.49786 -3.7315,0.90522 -5.4093,0.90522 -2.784,0 -2.8531,0.22461 -0.7926,2.57468 6.7792,7.73175 8.7949,17.78481 4.7298,23.58861 -2.6045,3.71829 -9.497,7.66405 -13.4465,7.69765 -1.4562,0.0124 -3.5575,0.59878 -4.6692,1.30305 -2.9541,1.87113 1.6838,9.08556 7.6598,11.91554 3.9182,1.85544 4.7374,3.14398 5.1446,8.09179 0.6664,8.0984 -1.8457,15.5862 -7.8822,23.49436 -2.8092,3.68028 -5.1077,8.03992 -5.1077,9.68804 0,1.64815 -1.7841,4.78085 -3.965,6.96157 -3.1352,3.13528 -3.8807,5.13025 -3.5626,9.53385 0.3321,4.59978 -0.3863,6.30518 -4.127,9.79958 -3.8015,3.5511 -4.529,5.32916 -4.529,11.06962 0,7.55818 -2.3432,13.11252 -7.6042,18.02469 -11.0368,10.30504 -32.5534,10.40438 -34.6022,0.15976 -0.7068,-3.53356 -1.5358,-4.13544 -5.6968,-4.13544 -6.5972,0 -12.4173,2.38783 -12.4173,5.09442 0,1.28564 4.4722,4.47694 10.5944,7.56007 29.4993,14.85557 49.8517,30.36867 60.3807,46.02365 4.1451,6.16305 18.2591,25.51648 31.3642,43.00761 31.2025,41.64481 34.4855,50.38531 34.4855,91.81161 l 0,21.104 -7.5126,-5.05558 c -6.8966,-4.64101 -28.3605,-12.28551 -41.0382,-14.61587 -2.8321,-0.52058 -6.2625,-1.25834 -7.623,-1.63943 -1.7243,-0.48297 -3.2187,0.87712 -4.9328,4.48897 -3.5847,7.5543 -12.6099,15.024 -24.9434,20.6446 -5.9589,2.71548 -24.2897,12.39053 -40.7354,21.50011 -16.4456,9.10957 -39.1699,20.98236 -50.4984,26.38399 -37.6178,17.93672 -51.8035,28.18653 -70.9032,51.23011 -16.5288,19.9422 -35.8897,42.0471 -37.3359,42.6275 -0.6147,0.2467 -1.3395,-7.3669 -1.6108,-16.9193 z m 41.0542,-66.65423 c 8.079,-10.92393 19.8667,-27.47533 26.1949,-36.78088 6.3283,-9.30557 21.4803,-30.49135 33.6711,-47.07953 39.9491,-54.35895 63.9331,-93.15927 62.1578,-100.5563 -0.4179,-1.74117 -2.5039,-7.76147 -4.6356,-13.37842 -9.2447,-24.35922 -16.9383,-66.21228 -16.953,-92.22212 0,-7.78835 -0.4292,-16.26697 -0.9441,-18.84139 l -0.9362,-4.68074 -3.9988,3.83115 c -2.1994,2.10712 -5.916,4.34334 -8.2591,4.96941 -4.0922,1.09336 -5.577,3.03029 -9.7344,12.69863 -1.2967,3.01536 -4.5759,5.81203 -10.351,8.82741 -9.2864,4.84873 -14.6169,11.38749 -18.3778,22.54336 -1.2761,3.78473 -3.3382,8.45734 -4.583,10.38358 -4.5866,7.09839 -15.0597,47.53543 -17.188,66.36466 -4.4671,39.51738 -8.8128,47.24958 -25.3165,45.04478 -18.0901,-2.41669 -31.9818,-19.46594 -22.703,-27.8631 2.5065,-2.2684 2.9772,-2.10127 7.6448,2.71444 7.7811,8.02811 14.2549,6.27871 21.3089,-5.75836 7.8854,-13.45536 15.5141,-42.35042 12.6126,-47.77205 -1.8529,-3.46217 -4.1812,-4.04351 -24.357,-6.08169 -19.6844,-1.98854 -27.2537,-4.98937 -30.6528,-12.15207 -1.3577,-2.86134 -2.4686,-7.29462 -2.4686,-9.85174 0,-4.63543 -0.02,-4.64653 -6.2529,-3.71565 -8.6825,1.29649 -12.2791,-0.47173 -25.0556,-12.31823 -11.485,-10.64898 -19.3317,-14.15283 -24.47078,-10.92731 -3.33195,2.0912 -3.71534,16.4831 -0.93724,35.18298 1.25441,8.44345 2.2807,18.02615 2.2807,21.29486 0,4.1325 1.28552,7.8168 4.21982,12.09316 18.5248,26.99844 43.5389,104.80721 64.883,201.8243 5.3332,24.24147 5.6301,25.19797 7.2698,23.41798 0.6836,-0.74219 7.853,-10.2872 15.932,-21.21112 z M 1189.4758,690.9248 c 3.1904,-2.64786 2.2889,-8.24559 -2.1235,-13.18381 l -4.1027,-4.59169 -5.4603,6.04396 c -6.2459,6.91346 -6.9634,11.38581 -2.1501,13.40148 3.8069,1.59425 10.9409,0.73325 13.8366,-1.66994 z m -188.8421,-44.68379 c 2.1954,-4.60375 3.0724,-5.14933 8.2774,-5.14933 3.2022,0 6.2368,-0.67111 6.7438,-1.49135 0.5449,-0.88179 3.5374,0.38714 7.3212,3.10449 3.5199,2.5277 7.0415,4.19923 7.8259,3.71445 0.7844,-0.48475 1.845,-3.11499 2.3573,-5.84497 0.5121,-2.72997 2.1821,-6.0957 3.7109,-7.47939 2.5979,-2.35099 3.0885,-2.35629 7.4884,-0.081 4.6177,2.38788 4.79,2.35688 8.926,-1.60573 3.085,-2.95563 6.4518,-4.34379 12.5381,-5.16974 11.3147,-1.53541 12.1245,-2.68079 8.0489,-11.38263 -4.6582,-9.9455 -3.8538,-12.63901 3.9431,-13.20431 3.4322,-0.24881 6.2401,-1.07638 6.2401,-1.83904 0,-0.76265 -0.5634,-1.38664 -1.2522,-1.38664 -0.6886,0 -3.3207,-4.68343 -5.849,-10.40761 -2.5283,-5.7242 -5.2236,-10.02036 -5.9894,-9.54705 -0.766,0.47331 -2.8183,5.14539 -4.5611,10.38239 -4.4699,13.43218 -6.3973,15.30648 -18.3073,17.80303 -10.6832,2.23936 -14.063,4.02597 -14.063,7.43377 0,3.96435 -6.5727,4.81035 -21.8934,2.81794 -13.1227,-1.70655 -16.0328,-2.6533 -25.223,-8.20614 -9.165,-5.53757 -10.8231,-6.07912 -14.0759,-4.59704 -3.3164,1.51098 -9.3115,11.6059 -9.3946,15.81914 -0.061,3.04217 8.7904,12.76469 17.277,18.97956 4.6405,3.3982 9.6984,7.59785 11.24,9.33251 3.9094,4.39944 5.8324,3.95691 8.6708,-1.99536 z m 225.7806,-27.74383 c 6.2651,-6.79681 9.1588,-14.79391 6.3642,-17.58849 -1.2061,-1.20591 -3.9531,0.87718 -10.3781,7.86939 -8.1935,8.91689 -10.227,12.81823 -7.8961,15.14919 2.3711,2.37106 6.4213,0.52446 11.91,-5.43009 z M 936.73111,591.6836 c 3.26404,-3.70823 7.06887,-9.83225 8.45517,-13.60893 5.33742,-14.54107 6.31882,-16.14315 12.41772,-20.27033 7.4723,-5.05648 9.7881,-10.67053 11.5499,-27.99967 0.9403,-9.24861 2.259,-13.79846 5.7865,-19.96369 4.6894,-8.19621 8.0552,-24.70024 5.0376,-24.70024 -0.8225,0 -5.3469,2.31912 -10.0539,5.15357 -4.7071,2.83446 -13.8755,7.20405 -20.374,9.71018 -10.23854,3.94834 -13.19496,4.47001 -22.14809,3.90792 -6.7598,-0.42439 -12.16759,0.0597 -15.63996,1.40004 l -5.30762,2.0487 -0.94511,11.1803 c -2.12774,25.17121 -1.93353,26.17778 9.21196,47.73418 5.58622,10.80461 10.98749,22.45847 12.00264,25.89747 1.01516,3.43901 2.3467,6.25276 2.95912,6.25276 0.61231,0 3.78404,-3.03401 7.04807,-6.74226 z m 80.38249,5.40128 c 4.8551,-0.705 11.5108,-2.00621 14.7904,-2.89159 6.225,-1.68046 17.1863,-10.04021 19.9597,-15.22253 1.4901,-2.78427 1.2941,-2.93704 -2.5924,-2.02122 -2.3121,0.54488 3.0783,-3.07594 11.9794,-8.04632 41.6749,-23.27154 63.0567,-36.89103 54.969,-35.01359 -3.326,0.77212 -74.743,43.04584 -73.9911,43.79758 0.345,0.34508 -2.8475,1.85961 -7.0945,3.36564 -7.2414,2.56782 -20.4267,3.30362 -45.763,2.55373 -6.7119,-0.19867 -8.9699,1.57195 -7.5819,5.94527 2.5223,7.94722 14.6546,10.53446 35.3244,7.53303 z m 101.9658,-15.60223 c 6.9109,-7.23537 10.5837,-14.49721 10.5837,-20.92579 0,-2.26879 2.0507,-12.05538 4.5568,-21.74796 3.8192,-14.77102 4.4023,-19.20777 3.6025,-27.41648 -0.9197,-9.43981 -0.7912,-9.97918 3.5568,-14.93142 l 4.5112,-5.13783 -4.9131,-9.42561 c -2.9892,-5.73504 -5.91,-14.5782 -7.4591,-22.58508 -3.6184,-18.70084 -7.8265,-33.74278 -11.3988,-40.74489 -4.1467,-8.1283 -16.8344,-21.31827 -24.0448,-24.99671 -9.7902,-4.99471 -34.5716,-13.8299 -48.5938,-17.32506 -17.2865,-4.3088 -29.1974,-3.53685 -66.69,4.32223 -31.4596,6.59443 -40.88441,10.26629 -56.20078,21.89606 -21.00188,15.94652 -27.57478,26.91983 -23.50711,39.24469 1.89911,5.75456 3.11855,6.31834 6.04338,2.79415 3.19556,-3.85035 21.97678,-12.32667 27.31261,-12.32667 2.69839,0 4.906,-0.66206 4.906,-1.47124 0,-0.84853 4.51485,-1.45757 10.6666,-1.43892 13.4538,0.0408 20.6081,3.15018 27.9934,12.16642 9.8662,12.04526 11.2933,16.93506 11.3299,38.81991 0.033,19.1749 0.075,19.42045 3.9088,22.43633 4.7507,3.73698 14.6151,4.06551 19.4925,0.6492 4.2966,-3.00944 18.8178,-1.85375 25.4156,2.02272 4.2322,2.4866 4.476,2.47843 6.4553,-0.21631 1.9094,-2.59919 2.1274,-2.61769 3.0331,-0.25736 1.6635,4.33488 -2.1369,13.69937 -7.1524,17.6246 l -4.7154,3.69032 3.0471,4.11258 c 3.8832,5.24134 11.9157,10.73316 15.6982,10.73316 1.6079,0 8.6271,-4.20099 15.5983,-9.33555 27.8043,-20.47947 37.0517,-25.36324 45.1492,-23.84417 11.7477,2.2039 18.376,14.07343 13.2126,23.66104 -2.4104,4.47611 -12.8918,11.23652 -32.8717,21.20224 l -6.3108,3.14762 2.8116,3.98649 c 1.5464,2.19257 4.6366,7.62777 6.8672,12.07827 4.5772,9.13296 9.2715,16.18647 10.7667,16.17771 0.5518,-0.002 3.8542,-2.99066 7.3387,-6.63869 z m -55.107,-58.4576 c -5.9588,-6.36548 -12.8425,-15.74846 -12.0989,-16.49196 1.0899,-1.08992 20.4114,17.08008 20.4114,19.19491 0,3.49817 -3.6047,2.32601 -8.3125,-2.70295 z m -11.1822,-45.84819 c -6.2702,-1.68687 -13.737,-6.37428 -12.3552,-7.7561 0.2944,-0.2944 4.4363,0.51229 9.2042,1.79269 5.2341,1.40553 16.2977,2.49229 27.9221,2.74267 18.7755,0.40444 22.6771,1.07806 22.6771,3.91528 0,2.08288 -39.2607,1.50818 -47.4482,-0.69454 z m -32.3787,-10.56149 c -1.6016,-1.6016 -1.3146,-10.77022 0.5468,-17.47512 0.8918,-3.21208 1.764,-8.50855 1.9383,-11.76988 0.1743,-3.26135 0.4339,-7.74846 0.5772,-9.97137 0.3798,-5.89619 9.606,-15.42885 16.9703,-17.53423 3.3759,-0.96515 15.9378,-1.7917 28.1628,-1.85307 l 22.0684,-0.11086 7.234,5.02109 c 3.9786,2.7616 11.0581,8.90517 15.732,13.65236 7.037,7.14701 8.6707,9.78129 9.5014,15.319 1.7036,11.36152 -0.6578,11.03295 -15.6016,-2.1707 -10.1472,-8.9655 -15.3785,-12.49671 -20.9764,-14.15908 -9.234,-2.74224 -14.3803,-2.80562 -17.9157,-0.2206 -3.9894,2.91708 -1.9656,6.0174 5.3218,8.15315 9.3849,2.75042 17.5334,7.89042 24.5131,15.46255 5.9603,6.46617 7.8829,11.17107 4.5649,11.17107 -0.8818,0 -5.3506,-3.38598 -9.9308,-7.52441 -10.2431,-9.25521 -17.9903,-12.99837 -26.9901,-13.04056 -9.2052,-0.0432 -14.0214,1.96385 -21.0607,8.77635 -5.5954,5.41496 -6.1952,5.63727 -12.187,4.51681 -7.0894,-1.32575 -8.2378,-0.26289 -10.2665,9.50105 -0.611,2.94111 -1.6021,4.85648 -2.2022,4.25639 z m 39.3382,-2.08366 c -15.3307,-1.08844 -21.3033,-2.2978 -21.3033,-4.31373 0,-1.97623 13.0054,-13.31251 17.0264,-14.84129 7.9098,-3.00727 18.8044,-1.7129 28.2051,3.35099 7.8833,4.24654 20.9742,14.57454 20.9742,16.54757 0,0.99414 -26.6404,0.553 -44.9024,-0.74354 z m 2.2367,-8.72883 c 0,-2.37979 -0.6484,-4.7276 -1.4409,-5.21738 -1.6077,-0.99365 -6.6895,1.32153 -10.8686,4.95178 -2.616,2.27241 -2.4763,2.42807 2.9425,3.28026 3.1289,0.49207 6.5163,0.98861 7.5278,1.10342 1.1017,0.12506 1.8392,-1.52606 1.8392,-4.11808 z m 25.0109,3.01304 c 0,-0.72261 -0.993,-1.6949 -2.2069,-2.16069 -1.3442,-0.51584 -2.2068,-0.002 -2.2068,1.31383 0,1.18838 0.993,2.16068 2.2068,2.16068 1.2139,0 2.2069,-0.59123 2.2069,-1.31382 z m -13.2411,-5.39357 c 0,-1.16601 -0.9932,-2.12002 -2.207,-2.12002 -2.2158,0 -3.0244,3.10576 -1.2659,4.86412 1.373,1.37303 3.4729,-0.28617 3.4729,-2.7441 z M 995.0451,568.977 c 15.7246,-10.5043 21.2742,-12.27626 34.3667,-10.97301 9.7412,0.96968 9.7595,0.96451 6.0923,-1.72777 -2.6796,-1.96723 -5.82,-2.6064 -11.5674,-2.35434 l -7.8896,0.346 1.0856,-4.77106 c 0.597,-2.62407 1.2162,-9.05592 1.3758,-14.29298 0.244,-8.00933 0.7406,-9.64691 3.1258,-10.30874 1.5595,-0.43276 5.8148,-2.43353 9.4561,-4.44619 l 6.6205,-3.65938 -5.0505,-0.4897 c -10.1656,-0.98567 -14.1828,0.74493 -16.7195,7.20257 -2.2752,5.79204 -2.4702,5.91531 -7.7831,4.91861 l -5.4495,-1.02233 0.8543,6.4567 c 0.47,3.55118 1.2824,8.77388 1.8054,11.606 1.3175,7.1349 -3.8427,14.60088 -12.2343,17.70067 -3.4344,1.26864 -7.4848,3.59797 -9.0011,5.17628 -3.0604,3.18585 -5.4076,9.49197 -3.5312,9.48714 0.6615,-10e-4 7.161,-3.98353 14.4437,-8.84847 z m 77.6423,-20.67244 c 23.6808,-17.40133 34.4712,-26.20901 35.1477,-28.68908 0.537,-1.96833 0.653,-3.57879 0.2576,-3.57879 -2.9775,0 -43.9354,29.25941 -57.8764,41.34552 -7.1719,6.21782 -14.8573,16.03264 -12.5541,16.03264 0.4693,0 16.2307,-11.29962 35.0252,-25.11029 z m -73.4622,-20.34609 c 4.0456,-4.04574 2.7547,-4.83268 -4.0759,-2.48444 -7.2162,2.48081 -10.5526,1.57147 -13.684,-3.72961 -3.0915,-5.23318 -4.8107,-5.40885 -4.8107,-0.49155 0,2.06246 1.7028,5.44771 3.7899,7.53491 3.21,3.20985 4.7067,3.66698 9.7791,2.98663 3.2938,-0.4418 7.3446,-2.15899 9.0016,-3.81594 z m -85.09802,-29.94213 c 0.99886,-1.02239 0.29019,-1.21196 -2.20683,-0.59034 -2.023,0.50363 -4.54464,0.92474 -5.60398,0.93579 -1.05923,0.0124 -1.50008,0.70904 -0.97952,1.55115 1.0336,1.6725 6.4442,0.50513 8.79033,-1.8966 z m 27.95337,-3.23639 c 10.91335,-2.58038 34.57405,-12.36603 34.57405,-14.29919 0,-0.7828 -1.1586,-1.08097 -2.5746,-0.66263 -4.0252,1.1891 -26.7178,6.89506 -35.67746,8.97091 -15.04834,3.48656 -17.81194,6.79639 -6.6206,7.92918 0.80917,0.082 5.44365,-0.79032 10.29861,-1.93827 z m -30.53932,-3.20738 c 2.25203,-0.60356 3.76852,-2.62779 4.77839,-6.37824 2.46801,-9.1656 7.55886,-15.14671 19.45503,-22.85773 6.24181,-4.0459 11.37275,-7.85273 11.40205,-8.45959 0.092,-1.93143 -10.94513,-1.18771 -17.98769,1.21196 -8.65698,2.94968 -17.92459,12.76747 -20.24678,21.44855 -0.94117,3.51801 -2.31116,7.54597 -3.04456,8.95108 -3.15386,6.04212 -1.37112,7.96399 5.64356,6.08397 z m 31.48364,-10.50531 c 1.64557,-1.70845 -0.35292,-9.16763 -2.4562,-9.16763 -2.63273,0 -9.75343,8.73448 -8.61809,10.57144 0.95782,1.54964 9.24096,0.49963 11.07429,-1.40381 z m 13.03243,-8.51884 c 0,-1.16602 -0.993,-2.12002 -2.2068,-2.12002 -2.216,0 -3.0245,3.10575 -1.266,4.86412 1.373,1.37301 3.4728,-0.2862 3.4728,-2.7441 z m 14.7124,2.34544 c 0,-1.31095 -4.6086,-4.46546 -6.5238,-4.46546 -0.4577,0 -0.8324,1.3241 -0.8324,2.94245 0,2.15783 0.9809,2.94248 3.6781,2.94248 2.023,0 3.6781,-0.63876 3.6781,-1.41947 z m 5.8849,-4.26995 c 0,-1.87574 -10.1986,-8.28832 -16.4555,-10.34683 -4.0348,-1.32737 -6.9354,-1.37592 -11.3401,-0.18985 -9.18474,2.47322 -8.19004,3.76087 2.5525,3.3042 8.653,-0.36784 10.6531,0.0953 17.1513,3.97177 8.5194,5.08204 8.0918,4.90976 8.0918,3.26071 z m 15.959,-118.41804 4.9246,-3.67945 7.213,5.18206 c 3.9673,2.85012 7.2132,4.90908 7.2132,4.57546 0,-0.33365 -1.0601,-4.17552 -2.3553,-8.53748 -2.6148,-8.80474 -3.1392,-7.75048 7.9863,-16.05669 l 3.9319,-2.93551 -9.1201,-0.0467 -9.1199,-0.0465 -2.5451,-8.07393 c -1.3998,-4.44068 -2.9232,-7.70413 -3.3854,-7.25214 -0.4622,0.452 -1.888,3.91975 -3.1684,7.70613 l -2.328,6.88433 -9.24,0.44231 -9.2398,0.44231 7.3447,5.47989 7.3445,5.47987 -2.5936,8.38226 c -2.9033,9.38423 -2.7377,9.43191 7.1374,2.05379 z"
       id="path5140"
       inkscape:connector-curvature="0" />
    <text
       xml:space="preserve"
       style="font-style:normal;font-variant:normal;font-weight:normal;font-stretch:normal;font-size:50px;line-height:125%;font-family:FontAwesome;-inkscape-font-specification:FontAwesome;letter-spacing:0px;word-spacing:0px;writing-mode:lr-tb;fill:#000000;fill-opacity:1;stroke:none;stroke-width:1px;stroke-linecap:butt;stroke-linejoin:miter;stroke-opacity:1"
       x="-508.57144"
       y="-104.78067"
       id="text5205"
       sodipodi:linespacing="125%"><tspan
         sodipodi:role="line"
         id="tspan5207"
         x="-508.57144"
         y="-104.78067"></tspan></text>
    <text
       xml:space="preserve"
       style="font-style:normal;font-variant:normal;font-weight:normal;font-stretch:normal;font-size:50px;line-height:125%;font-family:FontAwesome;-inkscape-font-specification:FontAwesome;letter-spacing:0px;word-spacing:0px;writing-mode:lr-tb;fill:#000000;fill-opacity:1;stroke:none;stroke-width:1px;stroke-linecap:butt;stroke-linejoin:miter;stroke-opacity:1"
       x="496.73572"
       y="403.15515"
       id="text5302"
       sodipodi:linespacing="125%"><tspan
         sodipodi:role="line"
         x="504.07947"
         y="403.15515"
         id="tspan5304"><tspan
           x="496.73572"
           y="403.15515"
           style="font-style:normal;font-variant:normal;font-weight:normal;font-stretch:normal;font-size:58.75px;font-family:ChunkFive;-inkscape-font-specification:ChunkFive;text-align:center;text-anchor:middle"
           id="tspan5306">The walls of the </tspan></tspan><tspan
         sodipodi:role="line"
         x="456.45984"
         y="476.59265"
         id="tspan5308"><tspan
           x="449.11609"
           y="476.59265"
           style="font-style:normal;font-variant:normal;font-weight:normal;font-stretch:normal;font-size:58.75px;font-family:ChunkFive;-inkscape-font-specification:ChunkFive;text-align:center;text-anchor:middle"
           id="tspan5310">educational system </tspan></tspan><tspan
         sodipodi:role="line"
         x="485.66272"
         y="550.03015"
         id="tspan5312"><tspan
           x="478.31897"
           y="550.03015"
           style="font-style:normal;font-variant:normal;font-weight:normal;font-stretch:normal;font-size:58.75px;font-family:ChunkFive;-inkscape-font-specification:ChunkFive;text-align:center;text-anchor:middle"
           id="tspan5314">must come down. </tspan></tspan><tspan
         sodipodi:role="line"
         x="386.2352"
         y="623.46765"
         id="tspan5316"><tspan
           x="378.89145"
           y="623.46765"
           style="font-style:normal;font-variant:normal;font-weight:normal;font-stretch:normal;font-size:58.75px;font-family:ChunkFive;-inkscape-font-specification:ChunkFive;text-align:center;text-anchor:middle"
           id="tspan5318">Education should not be </tspan></tspan><tspan
         sodipodi:role="line"
         x="479.69592"
         y="696.90515"
         id="tspan5320"><tspan
           x="472.35217"
           y="696.90515"
           style="font-style:normal;font-variant:normal;font-weight:normal;font-stretch:normal;font-size:58.75px;font-family:ChunkFive;-inkscape-font-specification:ChunkFive;text-align:center;text-anchor:middle"
           id="tspan5322">a privilege, so the </tspan></tspan><tspan
         sodipodi:role="line"
         x="423.81458"
         y="770.34265"
         id="tspan5324"><tspan
           x="416.47083"
           y="770.34265"
           style="font-style:normal;font-variant:normal;font-weight:normal;font-stretch:normal;font-size:58.75px;font-family:ChunkFive;-inkscape-font-specification:ChunkFive;text-align:center;text-anchor:middle"
           id="tspan5326">children of those who </tspan></tspan><tspan
         sodipodi:role="line"
         x="398.45569"
         y="843.78015"
         id="tspan5328"><tspan
           x="398.45569"
           y="843.78015"
           style="font-style:normal;font-variant:normal;font-weight:normal;font-stretch:normal;font-size:58.75px;font-family:ChunkFive;-inkscape-font-specification:ChunkFive;text-align:center;text-anchor:middle"
           id="tspan5330">have money can study.</tspan></tspan></text>
  </g>
</svg>
